﻿Number,Gender,NameSet,Title,GivenName,MiddleInitial,Surname,StreetAddress,City,State,StateFull,ZipCode,Country,CountryFull,EmailAddress,Username,Password,BrowserUserAgent,TelephoneNumber,TelephoneCountryCode,MothersMaiden,Birthday,TropicalZodiac,CCType,CCNumber,CVV2,CCExpires,NationalID,UPS,WesternUnionMTCN,MoneyGramMTCN,Color,Occupation,Company,Vehicle,Domain,BloodType,Pounds,Kilograms,FeetInches,Centimeters,Latitude,Longitude
1,male,German,Mr.,Dirk,J,Fuhrmann,Neue RoÃŸstr. 28,Esslingen Esslingen,BW,Baden-WÃ¼rttemberg,73728,DE,Germany,DirkFuhrmann@armyspy.com,Culton,eeD2aiCah,"Mozilla/5.0 (Macintosh; Intel Mac OS X 10_11_1) AppleWebKit/537.36 (KHTML, like Gecko) Chrome/47.0.2526.106 Safari/537.36",0711 35 01 78,49,Gersten,10/7/1941,Libra,Visa,4.53945E+15,829,Jun-21,,1Z 907 608 21 3648 655 2,7823623749,93669541,Green,Clothing designer,Scotty's Builders Supply,2004 MCC Silverpulse,ComClock.de,A+,168.3,76.5,"6' 0""",182,48.780208,9.398224
2,male,German,Mr.,Eric,M,Wagner,Hans-Grade-Allee 31,Steinhorst,NI,Niedersachsen,29367,DE,Germany,EricWagner@rhyta.com,Tivis1930,Othohch4,"Mozilla/5.0 (Macintosh; Intel Mac OS X 10_11_1) AppleWebKit/537.36 (KHTML, like Gecko) Chrome/47.0.2526.80 Safari/537.36",04536 51 57 80,49,Sankt,8/4/1930,Leo,MasterCard,5.28621E+15,499,Jan-17,,1Z 169 110 47 8920 574 8,6968376589,41776495,Blue,Management consultant,Sunny Real Estate Investments,2012 Peugeot 107,CyberSaga.de,O+,197.3,89.7,"5' 9""",175,52.729612,10.397152
3,female,German,Mrs.,Katrin,D,Maier,Koepenicker Str. 62,Niederwallmenach,RP,Rheinland-Pfalz,56357,DE,Germany,KatrinMaier@teleworm.us,Oural1958,ohb9Xidae,"Mozilla/5.0 (Windows NT 6.3; WOW64) AppleWebKit/537.36 (KHTML, like Gecko) Chrome/47.0.2526.80 Safari/537.36",06772 43 33 67,49,Bayer,12/6/1958,Sagittarius,Visa,4.71613E+15,782,Dec-18,,1Z 9A6 621 33 2774 456 3,7183290398,59827205,Orange,Rigger,Red Food,2010 Renault Symbol,WholesalerLeads.de,AB+,185.2,84.2,"5' 1""",154,50.214376,7.852672
4,male,German,Mr.,Tobias,C,Lange,LÃ¼tzowplatz 42,Temmels,RP,Rheinland-Pfalz,54441,DE,Germany,TobiasLange@rhyta.com,Stented,OoCee8Einoo,Mozilla/5.0 (Windows NT 6.3; WOW64; rv:43.0) Gecko/20100101 Firefox/43.0,06584 61 08 61,49,Maurer,10/17/1993,Libra,Visa,4.55672E+15,923,Oct-19,,1Z 478 214 77 6609 358 5,6655845362,13593505,Blue,Telecommunications specialist,Sounds of Soul Records & Tapes,2006 Hyundai Tipper,RecruitingBlitz.de,A+,234.1,106.4,"5' 6""",167,49.703149,6.445323
